<?xml version="1.0" encoding="UTF-8"?>
<svg viewBox="0 0 2348.4 934.22" xmlns="http://www.w3.org/2000/svg">
<defs>
<linearGradient id="a" x1="1.238" x2="-.505" y1=".796" y2=".626">
<stop stop-color="#01adee" offset="0"/>
<stop stop-color="#2c398b" offset="1"/>
</linearGradient>
</defs>
<g transform="translate(2120 -973.25)" fill="url(#a)" data-name="Subtraction 4">
<path d="m-557.75 1907c-71.334 0-148.62-1.6886-229.72-5.0189-73.726-3.0275-152.26-7.4796-233.41-13.232-136.68-9.6886-283.22-23.198-435.57-40.154-59.849-6.661-120.75-13.876-181-21.446-48.205-6.0554-96.11-12.35-142.38-18.708-76.267-10.479-123.07-17.705-126.41-18.223-1.5588-1.8979-17.961-21.981-40.736-54.147-13.998-19.769-27.628-40.166-40.513-60.625-16.105-25.572-31.084-51.312-44.52-76.506-34.196-64.12-58.728-125.13-72.915-181.33-4.1001-16.242-7.3774-32.292-9.7412-47.705-2.4878-16.222-4.0325-32.185-4.5903-47.445-0.58496-16.001-0.10181-31.673 1.4365-46.579 1.6082-15.581 4.4131-30.759 8.3381-45.112 2.7539-10.071 6.1235-19.973 10.016-29.429 3.9985-9.7157 8.6614-19.236 13.858-28.296 5.3342-9.2993 11.383-18.376 17.976-26.978 6.7615-8.8214 14.287-17.393 22.369-25.476 8.28-8.2817 17.377-16.285 27.038-23.788 9.89-7.6804 20.651-15.053 31.983-21.912 11.592-7.0168 24.11-13.695 37.205-19.849 13.385-6.2903 27.752-12.211 42.701-17.597 15.914-5.734 33.307-11.156 51.695-16.117 17.967-4.8475 37.38-9.3875 57.698-13.494 19.836-4.0089 41.082-7.7153 63.147-11.016 21.522-3.2193 44.415-6.1407 68.043-8.684 23.024-2.4778 47.377-4.6639 72.385-6.4982 24.342-1.785 49.971-3.2854 76.175-4.4593 50.228-2.2504 104.57-3.3911 161.51-3.3911 36.649 0 75.186 0.47253 114.54 1.405 37.646 0.89142 77.041 2.2275 117.09 3.9703 74.514 3.2429 154.03 8.0115 236.34 14.173 138.63 10.378 287.65 24.847 442.92 43.007 60.999 7.1343 123.12 14.863 184.64 22.97 49.216 6.4857 98.158 13.228 145.47 20.038 78.049 11.235 126.01 18.978 129.35 19.52 1.5451 1.8484 17.863 21.479 40.546 52.954 13.938 19.341 27.516 39.304 40.358 59.334 16.051 25.036 30.989 50.248 44.399 74.936 34.129 62.831 58.689 122.68 72.998 177.9 4.135 15.956 7.4557 31.73 9.87 46.886 2.5411 15.95 4.1482 31.654 4.7768 46.675 0.65857 15.75 0.25964 31.185-1.1861 45.876-1.5114 15.356-4.2086 30.326-8.0164 44.494-2.7003 10.047-6.0229 19.927-9.8754 29.366-3.9593 9.7-8.59 19.208-13.764 28.259-5.3114 9.2925-11.345 18.366-17.932 26.969-6.7568 8.8232-14.287 17.4-22.383 25.492-8.2961 8.2928-17.42 16.31-27.117 23.83-9.9293 7.6997-20.74 15.095-32.133 21.98-11.656 7.0442-24.25 13.754-37.433 19.941-13.477 6.326-27.948 12.286-43.013 17.714-16.427 5.9186-34.424 11.515-53.488 16.634-18.614 4.9983-38.76 9.6786-59.876 13.911-20.598 4.1285-42.686 7.9446-65.652 11.343-22.379 3.3107-46.205 6.3149-70.816 8.9292-23.958 2.5447-49.315 4.7897-75.369 6.6726-25.334 1.8307-52.018 3.3689-79.311 4.5721-52.228 2.3025-108.75 3.4696-168.01 3.4696z"/>
<path d="m-1355.7 974.25c-56.932 0-111.26 1.1406-161.48 3.3906-26.199 1.1736-51.823 2.6736-76.16 4.4586-25.002 1.8336-49.35 4.0193-72.368 6.4968-23.621 2.5421-46.508 5.4628-68.023 8.681-22.057 3.299-43.294 7.0039-63.122 11.011-20.308 4.1042-39.71 8.6417-57.667 13.486-18.374 4.957-35.754 10.376-51.655 16.105-14.934 5.3807-29.286 11.295-42.658 17.579-13.079 6.1469-25.581 12.816-37.158 19.824-11.316 6.8496-22.06 14.211-31.935 21.88-9.6443 7.4896-18.725 15.479-26.991 23.746-8.0658 8.0677-15.577 16.622-22.325 25.426-6.5801 8.5846-12.616 17.643-17.939 26.923-5.1868 9.041-9.8401 18.541-13.83 28.237-3.8843 9.4375-7.2476 19.319-9.9958 29.371-3.9175 14.326-6.7178 29.476-8.323 45.029-1.5359 14.883-2.0186 30.53-1.4348 46.508 0.55713 15.24 2.0994 31.182 4.5837 47.385 2.3611 15.397 5.635 31.431 9.7307 47.657 14.175 56.16 38.691 117.13 72.865 181.21 13.43 25.183 28.402 50.913 44.5 76.475 12.88 20.452 26.506 40.842 40.499 60.605 22.282 31.47 38.462 51.372 40.603 53.985 4.6182 0.7146 51.141 7.8768 126.22 18.193 46.271 6.3578 94.174 12.652 142.38 18.708 60.254 7.5688 121.15 14.784 181 21.445 152.33 16.955 298.87 30.463 435.54 40.151 81.146 5.7522 159.67 10.204 233.39 13.231 81.09 3.3301 158.37 5.0187 229.7 5.0187 59.248 0 115.77-1.1671 167.99-3.4694 27.289-1.2029 53.969-2.741 79.297-4.5713 26.048-1.8822 51.4-4.127 75.352-6.6708 24.604-2.6136 48.423-5.6172 70.796-8.9269 22.957-3.3964 45.037-7.2109 65.626-11.338 21.106-4.2303 41.241-8.9082 59.845-13.904 19.051-5.1154 37.034-10.708 53.448-16.622 15.05-5.4225 29.507-11.376 42.97-17.696 13.166-6.1804 25.745-12.881 37.386-19.916 11.376-6.8754 22.171-14.259 32.085-21.947 9.6808-7.5072 18.788-15.51 27.07-23.788 8.08-8.0769 15.596-16.637 22.34-25.443 6.5742-8.5851 12.595-17.639 17.895-26.913 5.1628-9.0325 9.7839-18.52 13.735-28.2 3.8445-9.4197 7.1606-19.28 9.8552-29.306 3.8008-14.141 6.4929-29.083 8.0017-44.41 1.4436-14.667 1.8423-30.078 1.1848-45.805-0.6272-15.001-2.2322-30.684-4.7698-46.615-2.4114-15.139-5.7285-30.897-9.8589-46.837-14.296-55.171-38.839-114.98-72.947-177.78-13.404-24.677-28.335-49.878-44.379-74.904-12.836-20.023-26.41-39.979-40.343-59.313-22.193-30.797-38.292-50.251-40.415-52.797-4.6265-0.74841-52.303-8.4248-129.16-19.488-47.307-6.8101-96.248-13.551-145.46-20.037-61.517-8.1072-123.64-15.835-184.63-22.969-155.26-18.16-304.28-32.629-442.91-43.005-82.307-6.1611-161.82-10.929-236.33-14.172-40.047-1.7429-79.44-3.079-117.08-3.9705-39.353-0.9325-77.887-1.4049-114.53-1.4049m0-1.0001c601.74 0 1370.6 125.12 1370.6 125.12s480.36 570.47 0 743.54c-133.69 48.169-341.94 65.561-572.69 65.561-598.34 0-1348.8-116.82-1348.8-116.82s-480.36-580.64 0-753.71c129.47-46.648 328.79-63.689 550.82-63.689z" fill="#fff"/>
</g>
</svg>
